/* XPM */
static char * door_open_xpm[] = {
"28 28 433 2",
"  	c None",
". 	c #B59086",
"+ 	c #997778",
"@ 	c #B18983",
"# 	c #B9958A",
"$ 	c #B99C90",
"% 	c #B9A194",
"& 	c #B6948B",
"* 	c #947275",
"= 	c #B79288",
"- 	c #B99A8F",
"; 	c #B99A8E",
"> 	c #B9A296",
", 	c #B8978D",
"' 	c #8E6F72",
") 	c #B68F87",
"! 	c #BA8E88",
"~ 	c #DABEAA",
"{ 	c #F6C7AD",
"] 	c #CAA192",
"^ 	c #F5C2A9",
"/ 	c #FDCDB0",
"( 	c #FDCFB2",
"_ 	c #FDD0B4",
": 	c #FCCAAF",
"< 	c #C1998D",
"[ 	c #FDCEB2",
"} 	c #FDD1B5",
"| 	c #FECEB1",
"1 	c #B48F86",
"2 	c #FAC8AD",
"3 	c #E5C2AB",
"4 	c #CBA397",
"5 	c #B98D87",
"6 	c #F0C9B2",
"7 	c #FACBB0",
"8 	c #F2B5A2",
"9 	c #BE8582",
"0 	c #E39C92",
"a 	c #ECA99A",
"b 	c #EBA899",
"c 	c #EBA89A",
"d 	c #E9A397",
"e 	c #B47E7E",
"f 	c #E9A698",
"g 	c #EBA598",
"h 	c #A9787A",
"i 	c #ECA899",
"j 	c #F7C4AB",
"k 	c #F8D0B6",
"l 	c #D5AC9D",
"m 	c #D9AD9A",
"n 	c #FBCAAE",
"o 	c #EFB09E",
"p 	c #D08384",
"q 	c #9B6571",
"r 	c #7E5E6B",
"s 	c #8D6470",
"t 	c #8F6471",
"u 	c #8C6370",
"v 	c #745B69",
"w 	c #6F6371",
"x 	c #7B5D6A",
"y 	c #8D6370",
"z 	c #906370",
"A 	c #C2787D",
"B 	c #E49C92",
"C 	c #F9C5AB",
"D 	c #F1C1A8",
"E 	c #A9827E",
"F 	c #B18782",
"G 	c #F6BFA7",
"H 	c #D28685",
"I 	c #805F6B",
"J 	c #6F5A67",
"K 	c #825F6E",
"L 	c #926572",
"M 	c #936672",
"N 	c #906471",
"O 	c #636E7E",
"P 	c #795C69",
"Q 	c #8E6370",
"R 	c #8E6470",
"S 	c #87616F",
"T 	c #735A68",
"U 	c #B17278",
"V 	c #EDAE9D",
"W 	c #FAC9AD",
"X 	c #DAA898",
"Y 	c #87676F",
"Z 	c #FCCBAF",
"` 	c #EDAB9B",
" .	c #A36D75",
"..	c #785B6B",
"+.	c #A06A77",
"@.	c #B17B7F",
"#.	c #B68485",
"$.	c #B58385",
"%.	c #B58384",
"&.	c #AB767D",
"*.	c #795D6A",
"=.	c #6A7382",
"-.	c #7D5D6A",
";.	c #9A7177",
">.	c #A27C7F",
",.	c #9C7377",
"'.	c #966672",
").	c #D88D8A",
"!.	c #FBC9AD",
"~.	c #E4B7A0",
"{.	c #8E7275",
"].	c #A57D7C",
"^.	c #E2B29D",
"/.	c #D3918B",
"(.	c #735B68",
"_.	c #835F6C",
":.	c #9D6975",
"<.	c #B18686",
"[.	c #B38988",
"}.	c #AD8082",
"|.	c #80606D",
"1.	c #6E7785",
"2.	c #88626E",
"3.	c #AF8484",
"4.	c #B38887",
"5.	c #A87D80",
"6.	c #8A626E",
"7.	c #BF7C7E",
"8.	c #DEAB9A",
"9.	c #CC9D90",
"0.	c #84656E",
"a.	c #AD8A83",
"b.	c #ECBDA5",
"c.	c #DC9D92",
"d.	c #745E6C",
"e.	c #6B707E",
"f.	c #736977",
"g.	c #B48988",
"h.	c #B88C8A",
"i.	c #B88D8A",
"j.	c #A47B7E",
"k.	c #6E7381",
"l.	c #A27B7E",
"m.	c #B08686",
"n.	c #6E6A7A",
"o.	c #666D7B",
"p.	c #C38283",
"q.	c #E9BAA3",
"r.	c #D5AA98",
"s.	c #896D72",
"t.	c #B8A095",
"u.	c #EDAA9B",
"v.	c #77606C",
"w.	c #797984",
"x.	c #86747E",
"y.	c #C0918E",
"z.	c #C39490",
"A.	c #AE8485",
"B.	c #787D89",
"C.	c #AC8282",
"D.	c #BC8E8C",
"E.	c #837581",
"F.	c #737580",
"G.	c #D18A88",
"H.	c #FBCAAF",
"I.	c #E5C4AD",
"J.	c #8F7D7D",
"K.	c #B8998E",
"L.	c #7B5E6A",
"M.	c #936E75",
"N.	c #A17B7E",
"O.	c #A47F80",
"P.	c #8F6973",
"Q.	c #808B93",
"R.	c #987076",
"S.	c #B08685",
"T.	c #B08786",
"U.	c #AD8384",
"V.	c #946F76",
"W.	c #D28A87",
"X.	c #E5BDA6",
"Y.	c #8F7778",
"Z.	c #B8978C",
"`.	c #FDCDB1",
" +	c #8B6270",
".+	c #986773",
"++	c #7B828E",
"@+	c #A27A7D",
"#+	c #A37D7F",
"$+	c #D48C89",
"%+	c #E5BBA4",
"&+	c #8F7577",
"*+	c #B08B83",
"=+	c #F2C2A8",
"-+	c #E2A095",
";+	c #9B6975",
">+	c #A86D79",
",+	c #A86E79",
"'+	c #946673",
")+	c #7D858F",
"!+	c #A57B7E",
"~+	c #BC8F8D",
"{+	c #BC908D",
"]+	c #A57E80",
"^+	c #CC8585",
"/+	c #F0BEA6",
"(+	c #DBAD9A",
"_+	c #8A6D72",
":+	c #9A7778",
"<+	c #CEA293",
"[+	c #C18784",
"}+	c #785D6A",
"|+	c #967077",
"1+	c #A37B7E",
"2+	c #A37C7E",
"3+	c #8F6B74",
"4+	c #6E7483",
"5+	c #A57F80",
"6+	c #926F76",
"7+	c #B0757A",
"8+	c #CB9E90",
"9+	c #BB9288",
"0+	c #80636C",
"a+	c #B79B90",
"b+	c #FDCFB3",
"c+	c #EDAA9A",
"d+	c #82646E",
"e+	c #B68A89",
"f+	c #BE8C8B",
"g+	c #6D6472",
"h+	c #977077",
"i+	c #BF908D",
"j+	c #AC8484",
"k+	c #D58C89",
"l+	c #FBC9AE",
"m+	c #E5BFA8",
"n+	c #8E797A",
"o+	c #B89F93",
"p+	c #9A7279",
"q+	c #A88081",
"r+	c #A77F81",
"s+	c #916E74",
"t+	c #80919B",
"u+	c #777883",
"v+	c #7B8892",
"w+	c #A2787D",
"x+	c #B18787",
"y+	c #B18887",
"z+	c #B18786",
"A+	c #997279",
"B+	c #D38A87",
"C+	c #8F7C7C",
"D+	c #B8998D",
"E+	c #FDCEB1",
"F+	c #765D69",
"G+	c #795C6A",
"H+	c #916571",
"I+	c #916471",
"J+	c #805E6C",
"K+	c #788995",
"L+	c #747681",
"M+	c #75828E",
"N+	c #AB8284",
"O+	c #BA8D8B",
"P+	c #D48B89",
"Q+	c #B79389",
"R+	c #FDCCAF",
"S+	c #86616F",
"T+	c #AA6E7A",
"U+	c #AC707B",
"V+	c #AC6F7A",
"W+	c #916572",
"X+	c #798A95",
"Y+	c #AE8285",
"Z+	c #C1938F",
"`+	c #C2938F",
" @	c #A87F81",
".@	c #D48B88",
"+@	c #E4B7A1",
"@@	c #8F7375",
"#@	c #A57E7C",
"$@	c #E3B29E",
"%@	c #D4918B",
"&@	c #795E6A",
"*@	c #8E6C74",
"=@	c #97757A",
"-@	c #977479",
";@	c #866770",
">@	c #77838E",
",@	c #77606E",
"'@	c #7C5E6B",
")@	c #725A69",
"!@	c #BE7C7E",
"~@	c #DFAC9A",
"{@	c #CD9E90",
"]@	c #AD8983",
"^@	c #DD9D92",
"/@	c #81646E",
"(@	c #B78A89",
"_@	c #C59691",
":@	c #C59591",
"<@	c #A77E80",
"[@	c #7B8B96",
"}@	c #76838E",
"|@	c #996B78",
"1@	c #A66D79",
"2@	c #C68282",
"3@	c #E9B9A2",
"4@	c #D6AA99",
"5@	c #7B5F6A",
"6@	c #957076",
"7@	c #A17C7E",
"8@	c #A17C7F",
"9@	c #8B6972",
"0@	c #76828E",
"a@	c #876673",
"b@	c #946873",
"c@	c #956873",
"d@	c #82606E",
"e@	c #D28987",
"f@	c #B8988D",
"g@	c #7B5F6B",
"h@	c #98797F",
"i@	c #AB8486",
"j@	c #BF918E",
"k@	c #C1928F",
"l@	c #C0928E",
"m@	c #AD8081",
"n@	c #7E7984",
"o@	c #6E717E",
"p@	c #817681",
"q@	c #B58786",
"r@	c #BE908D",
"s@	c #AA8587",
"t@	c #957C80",
"u@	c #D38C89",
"v@	c #E5BCA5",
"w@	c #8F7678",
"x@	c #76606D",
"y@	c #6D7A87",
"z@	c #736E7D",
"A@	c #C3938F",
"B@	c #A77C7E",
"C@	c #727784",
"D@	c #A77D7E",
"E@	c #C39390",
"F@	c #C49490",
"G@	c #6F7281",
"H@	c #677584",
"I@	c #D08B89",
"J@	c #B28C84",
"K@	c #F6C4AA",
"L@	c #E5A295",
"M@	c #765C69",
"N@	c #715C6A",
"O@	c #85626F",
"P@	c #A47C7F",
"Q@	c #A67E80",
"R@	c #8E6872",
"S@	c #747A87",
"T@	c #977378",
"U@	c #A78182",
"V@	c #A57D80",
"W@	c #82646F",
"X@	c #6E5C6A",
"Y@	c #CB8484",
"Z@	c #F2BFA7",
"`@	c #DDAF9B",
" #	c #8B6D72",
".#	c #967476",
"+#	c #C49C8E",
"@#	c #B98381",
"##	c #785C6A",
"$#	c #9C6975",
"%#	c #AB6F7A",
"&#	c #A36B78",
"*#	c #775C6A",
"=#	c #6E7482",
"-#	c #A67C7E",
";#	c #BE908E",
">#	c #A87E81",
",#	c #AC7479",
"'#	c #C2988C",
")#	c #B38C84",
"!#	c #7E626C",
"~#	c #FED0B3",
"{#	c #EEAA9A",
"]#	c #83606D",
"^#	c #8B626F",
"/#	c #88616F",
"(#	c #725A68",
"_#	c #737886",
":#	c #A87C7F",
"<#	c #D58B88",
"[#	c #FCC9AE",
"}#	c #E5BFA9",
"|#	c #8F797A",
"1#	c #B79A90",
"2#	c #7A5F6A",
"3#	c #906D75",
"4#	c #9B777B",
"5#	c #896771",
"6#	c #656E7D",
"7#	c #7A5E6B",
"8#	c #715A68",
"9#	c #D18986",
"0#	c #E4BFA8",
"a#	c #8E787A",
"b#	c #A97C7B",
"c#	c #E7A999",
"d#	c #D98E8A",
"e#	c #7E606C",
"f#	c #AD8283",
"g#	c #BC8F8C",
"h#	c #A4797D",
"i#	c #666B7B",
"j#	c #9F6A76",
"k#	c #A26C77",
"l#	c #C37A7E",
"m#	c #E4A597",
"n#	c #D0978D",
"o#	c #87656E",
"p#	c #785C69",
"q#	c #86606C",
"r#	c #835F6B",
"s#	c #705A67",
"t#	c #795F6B",
"u#	c #7E636E",
"v#	c #765D6A",
"w#	c #6D5C6B",
"x#	c #705968",
"y#	c #7D5C6A",
"z#	c #85606C",
"          . + @ # $ % & * = - ; > , ' )                 ",
"      ! ~ { ] ^ / ( _ : < : [ [ } | 1 2 3 4             ",
"    5 6 7 8 9 0 a b c d e f b b b g h i j k l           ",
"    m n o p q r s t t u v w x y t t z A B C D E         ",
"  F ^ G H I J K L M M N v O P u Q R S T U V W X Y       ",
"  = Z `  ...+.@.#.$.%.&.*.=.-.;.>.>.>.,.'.).!.~.{.      ",
"  ].^./.(._.:.<.[.[.[.}.|.1.2.3.[.[.4.5.6.7.8.9.0.      ",
"  a.b.c.d.e.f.g.h.h.h.i.j.k.l.h.h.h.m.n.o.p.q.r.s.      ",
"  t.} u.v.w.x.y.z.z.z.z.A.B.C.z.z.z.D.E.F.G.H.I.J.      ",
"  K.[ u.L.M.N.O.O.O.O.O.P.Q.R.S.T.T.m.U.V.W.H.X.Y.      ",
"  Z.`.u.*. +.+.+.+.+.+.+K ++@+h.h.h.h.h.#+$+n %+&+      ",
"  *+=+-+L.;+>+>+>+>+>+,+'+)+!+~+{+{+{+~+]+^+/+(+_+      ",
"  :+<+[+}+|+1+1+1+1+1+2+3+4+M.]+5+5+5+]+6+7+8+9+0+      ",
"  a+b+c+d+e+z.z.z.z.z.f+6+g+h+i+z.z.z.z.j+k+l+m+n+      ",
"  o+_ u.L.p+q+q+q+q+r+s+t+u+v+w+x+y+y+z+A+B+H.3 C+      ",
"  D+E+u.F+G+N H+H+H+I+J+K+L+M+N+O+O+O+O+#+P+n X.Y.      ",
"  Q+R+u.F+S+T+U+U+U+V+W+X+L+M+Y+Z+`+`+Z+ @.@l++@@@      ",
"  #@$@%@&@*@=@=@=@=@-@;@X+L+>@,@'@'@'@'@)@!@~@{@0.      ",
"  ]@b.^@/@(@_@_@_@_@:@<@[@L+}@|@1@1@1@1@M 2@3@4@s.      ",
"  t.} u.5@6@7@8@>.>.N.9@K+L+0@a@b@c@c@b@d@e@H.I.J.      ",
"  f@E+u.g@h@i@j@k@k@l@m@n@o@p@q@k@k@r@s@t@u@n v@w@      ",
"  Z.`.u.x@y@z@j@z.z.z.A@B@C@D@E@z.F@O+G@H@I@H.%+&+      ",
"  J@K@L@M@N@O@P@Q@Q@Q@]+R@S@T@U@U@U@V@W@X@Y@Z@`@ #      ",
"  .#+#@###$#%#T+T+T+T+&#*#=#-#;#j@j@j@j@>#,#'#)#!#      ",
"  a+~#{#*.]#^#^#^#^#^#/#(#_#:#Z+`+`+`+`+>#<#[#}#|#      ",
"  1#( c+2#3#4#4#4#4#4#4#5#6#(.&@7#7#7#7#8#9#l+0#a#      ",
"  b#c#d#e#f#g#g#g#g#g#~+h#i#J+j#k#k#k#k#N l#m#n#o#      ",
"  p#q#r#s#t#u#u#u#u#u#u#v#w#x###*.*.*.*.v y#z#I (#      "};
