/* XPM */
static char * kingpig_xpm[] = {
"28 28 23 1",
" 	c #C39490",
".	c #6E5967",
"+	c #B77F83",
"@	c #AD707B",
"#	c #D1B1A5",
"$	c #3F3851",
"%	c #F6C27D",
"&	c #FFEFA9",
"*	c #EF895A",
"=	c #E44B3B",
"-	c #F2F7F6",
";	c #A5C2C7",
">	c #768EA1",
",	c #5F7D93",
"'	c #25667E",
")	c #298A91",
"!	c #37AB9C",
"~	c #48C38A",
"{	c #F0F7F4",
"]	c #91EA9C",
"^	c #B2D3CF",
"/	c #8CA9B5",
"(	c #DCCABE",
"    .                       ",
"+  @.@                      ",
"............................",
" #                 @.@    ##",
"                    .       ",
"        $$ $$$$@ $$$.       ",
"       $%&$&%%*$$%*=$       ",
"       $&&$&$$%$$%**$       ",
"       $%&%&%%%%*%*=$       ",
"       $$$$$$$$$$$$$$@      ",
"......$--$;-;$;;>$>,,$......",
"   @.@$$$$$$$$$$$$$$$$##    ",
"    .  $')$')$'))))'$$      ",
"  ... $$!~$$$$!~~$~)$       ",
"   +.${$!$]]~]$!${$)$      #",
"    .${{$$$~~$$${{$)$       ",
"    .$^{/$!~~!$/{^$)$       ",
"   @.$$/$$$$$$$$/$!~!$      ",
".....$~$$$$$$$$$$!~~~~$.....",
"# ## $~$')))))))!~~!!!$  # #",
"      $$))!~~~~~~~~$$$      ",
"       $)!~~~~~~~~~)$       ",
"       $)~~~~~~~~~~)$       ",
"       $!~~~]~]]~~!'$       ",
"        $~!$$$$$$))$.       ",
"         $$      $'$.@      ",
"..................$$........",
"   @.@   # ###(((##         "};
