/* XPM */
static char * wall_xpm[] = {
"28 28 186 2",
"  	c #594A57",
". 	c #6E545A",
"+ 	c #736261",
"@ 	c #746D6B",
"# 	c #746C6A",
"$ 	c #746966",
"% 	c #725F5F",
"& 	c #694F58",
"* 	c #4C3C52",
"= 	c #6B4A56",
"- 	c #70575B",
"; 	c #736663",
"> 	c #746E6E",
", 	c #746A67",
"' 	c #736764",
") 	c #725E5E",
"! 	c #70585B",
"~ 	c #F1B289",
"{ 	c #FBD3A0",
"] 	c #FDEABE",
"^ 	c #FDE7BA",
"/ 	c #FDE2AF",
"( 	c #FACB99",
"_ 	c #E3A581",
": 	c #805059",
"< 	c #E89176",
"[ 	c #F5BB8E",
"} 	c #FCDAA8",
"| 	c #FDE3B0",
"1 	c #FDEDC5",
"2 	c #FDE3B1",
"3 	c #FDDDAA",
"4 	c #FAC996",
"5 	c #F5BC8E",
"6 	c #FACA97",
"7 	c #FBCA97",
"8 	c #FBC996",
"9 	c #EEC091",
"0 	c #815059",
"a 	c #EDA07F",
"b 	c #FCCC98",
"c 	c #EA9779",
"d 	c #F8C392",
"e 	c #FBCB97",
"f 	c #6F565B",
"g 	c #F4B88C",
"h 	c #FBC997",
"i 	c #E6AA84",
"j 	c #815159",
"k 	c #E5846F",
"l 	c #ECA07E",
"m 	c #F8C393",
"n 	c #FBCB98",
"o 	c #6A4956",
"p 	c #E69076",
"q 	c #F1AE86",
"r 	c #D9836F",
"s 	c #E37F6D",
"t 	c #E3836F",
"u 	c #E79076",
"v 	c #E89578",
"w 	c #694655",
"x 	c #E17E6C",
"y 	c #E48771",
"z 	c #E58B73",
"A 	c #E48570",
"B 	c #D57869",
"C 	c #784253",
"D 	c #D6695F",
"E 	c #DD7D6C",
"F 	c #DD7C6C",
"G 	c #613D52",
"H 	c #CB5F5A",
"I 	c #D6796A",
"J 	c #D57769",
"K 	c #BE5556",
"L 	c #463951",
"M 	c #513C52",
"N 	c #533E53",
"O 	c #804F58",
"P 	c #3F3851",
"Q 	c #483852",
"R 	c #5C3853",
"S 	c #653A51",
"T 	c #613952",
"U 	c #573853",
"V 	c #443851",
"W 	c #593853",
"X 	c #633A52",
"Y 	c #643A51",
"Z 	c #5A3853",
"` 	c #453852",
" .	c #784B56",
"..	c #493B52",
"+.	c #3E3851",
"@.	c #673855",
"#.	c #9E3B58",
"$.	c #AD4350",
"%.	c #A84053",
"&.	c #933959",
"*.	c #553853",
"=.	c #973959",
"-.	c #AA4152",
";.	c #AC4251",
">.	c #9B3A58",
",.	c #5B3853",
"'.	c #DE8C72",
").	c #674855",
"!.	c #ECA17F",
"~.	c #5A3952",
"{.	c #813C52",
"].	c #843E4F",
"^.	c #833E4F",
"/.	c #773853",
"(.	c #483651",
"_.	c #7B3A53",
":.	c #853F4F",
"<.	c #803B52",
"[.	c #523852",
"}.	c #F6BC8F",
"|.	c #F2B289",
"1.	c #E48871",
"2.	c #3C3851",
"3.	c #5B3755",
"4.	c #873C53",
"5.	c #9C4A51",
"6.	c #A9605C",
"7.	c #AA605C",
"8.	c #3A3851",
"9.	c #736B6C",
"0.	c #FDE7BF",
"a.	c #F9C694",
"b.	c #E79277",
"c.	c #3B3851",
"d.	c #803D51",
"e.	c #AC424F",
"f.	c #C5665C",
"g.	c #CD7363",
"h.	c #FDE3B2",
"i.	c #3D3851",
"j.	c #6D3856",
"k.	c #A13F53",
"l.	c #B95654",
"m.	c #C76E61",
"n.	c #736060",
"o.	c #FBCE9B",
"p.	c #423851",
"q.	c #513852",
"r.	c #5A3A51",
"s.	c #5E3A51",
"t.	c #643E51",
"u.	c #623E52",
"v.	c #533D52",
"w.	c #9E3E55",
"x.	c #AE444E",
"y.	c #AD434E",
"z.	c #BD5955",
"A.	c #B35354",
"B.	c #664052",
"C.	c #623A52",
"D.	c #A84151",
"E.	c #AF444E",
"F.	c #AF434E",
"G.	c #C4635B",
"H.	c #C1655C",
"I.	c #694453",
"J.	c #C3635A",
"K.	c #4B3852",
"L.	c #763A54",
"M.	c #8D4651",
"N.	c #823E50",
"O.	c #503A51",
"P.	c #8C4651",
"Q.	c #5C3755",
"R.	c #893D53",
"S.	c #92404F",
"T.	c #93404F",
"U.	c #4C3852",
"V.	c #683B50",
"W.	c #FBCA96",
"X.	c #FCDBA8",
"Y.	c #FBD09D",
"Z.	c #FDE0AE",
"`.	c #736664",
" +	c #736160",
".+	c #746866",
"  . + @ # $ % & * = - ; $ > , ' ) ! = * & % $ # @ + .   ",
". ~ { ] ^ / ( _ : < [ } | 1 2 3 4 5 < : _ ( / ^ ] { ~ . ",
") 6 7 8 8 8 7 9 0 a b 7 8 8 8 7 7 b a 0 9 7 8 8 8 7 6 ) ",
") 6 7 7 7 7 7 9 0 c d e 7 7 7 7 e d c 0 9 7 7 7 7 7 6 ) ",
"f g e 7 7 7 h i j k l m n n n n m l k j i h 7 7 7 e g f ",
"o p g 7 7 h q r 0 s t u v v v v u t s 0 r q h 7 7 g p o ",
"w x y z z z A B C D E F F F F F F E D C B A z z z y x w ",
"G H I I I I J K L M N N N N N N N N M L K J I I I I H G ",
"* O O O 0 0 C L P Q R S T U V W X Y Z ` L C 0 0 O O  ...",
"= < a c k s D M +.@.#.$.%.&.*.=.-.;.>.,.M D s k c a '.).",
"! 5 b d !.t E N +.~.{.].^./.(._.].:.<.[.N E t !.d b }.! ",
") 4 7 n |.1.F N P 2.3.4.5.6.7.5.4.3.8.+.N F 1.|.n 7 4 ) ",
"9.0.8 7 a.b.F N P c.d.e.f.g.g.f.e.d.c.P N F b.a.7 8 0.9.",
", h.8 7 n v F N P i.j.k.l.m.m.l.k.j.i.P N F v n 7 8 h., ",
"n.o.7 7 n v F N p.q.r.s.t.u.v.t.s.r.q.p.N F v n 7 7 o.n.",
"' 3 7 7 a.b.F N ,.w.x.y.z.A.B.z.y.x.w.,.N F b.a.7 7 3 ' ",
") 4 7 n |.1.F N C.D.E.F.G.H.I.J.F.E.D.C.N F 1.|.n 7 4 ) ",
"! 5 b d !.t E N K.L.:.].M.N.O.P.].:.L.K.N E t !.d b }.! ",
"= < a c k s D M P c.Q.R.S.S.T.S.R.Q.c.P M D s k c a '.).",
"* O O O 0 0 C L P +.U.X V.V.V.V.X U.+.P L C 0 0 O O  ...",
"G H I I I I J K L M N N N N N N N N M L K J I I I I H G ",
"w x y z z z A B C D E F F F F F F E D C B A z z z y x w ",
"o p g 7 7 h q r 0 s t u v v v v u t s 0 r q h 7 7 g p o ",
"f g e 7 7 7 h i j k l m n n n n m l k j i h 7 7 7 e g f ",
") 6 7 7 7 7 7 9 0 c d e 7 7 7 7 e d c 0 9 7 7 7 7 7 6 ) ",
") 6 7 8 8 8 7 9 0 a b 7 7 W.8 8 7 b a 0 9 7 8 8 8 7 6 ) ",
". ~ { ] ^ / ( _ : < [ X.Y.Z.1 | } [ < : _ ( / ^ ] { ~ . ",
"  . + @ # $ % & * = - `. +.+> $ ; - = * & % $ # @ + .   "};
